<?xml version="1.0" encoding="UTF-8" standalone="no"?>
<graphml xmlns="http://graphml.graphdrawing.org/xmlns" xmlns:java="http://www.yworks.com/xml/yfiles-common/1.0/java" xmlns:sys="http://www.yworks.com/xml/yfiles-common/markup/primitives/2.0" xmlns:x="http://www.yworks.com/xml/yfiles-common/markup/2.0" xmlns:xsi="http://www.w3.org/2001/XMLSchema-instance" xmlns:y="http://www.yworks.com/xml/graphml" xmlns:yed="http://www.yworks.com/xml/yed/3" xsi:schemaLocation="http://graphml.graphdrawing.org/xmlns http://www.yworks.com/xml/schema/graphml/1.1/ygraphml.xsd">
  <!--Created by yEd 3.18.1-->
  <key attr.name="Beschreibung" attr.type="string" for="graph" id="d0"/>
  <key for="port" id="d1" yfiles.type="portgraphics"/>
  <key for="port" id="d2" yfiles.type="portgeometry"/>
  <key for="port" id="d3" yfiles.type="portuserdata"/>
  <key attr.name="url" attr.type="string" for="node" id="d4"/>
  <key attr.name="description" attr.type="string" for="node" id="d5"/>
  <key for="node" id="d6" yfiles.type="nodegraphics"/>
  <key for="graphml" id="d7" yfiles.type="resources"/>
  <key attr.name="url" attr.type="string" for="edge" id="d8"/>
  <key attr.name="description" attr.type="string" for="edge" id="d9"/>
  <key for="edge" id="d10" yfiles.type="edgegraphics"/>
  <graph edgedefault="directed" id="G">
    <data key="d0" xml:space="preserve"/>
    <node id="n0" yfiles.foldertype="group">
      <data key="d4" xml:space="preserve"/>
      <data key="d6">
        <y:ProxyAutoBoundsNode>
          <y:Realizers active="0">
            <y:GroupNode>
              <y:Geometry height="134.25" width="329.0" x="-578.625" y="1277.04638671875"/>
              <y:Fill color="#CAECFF84" transparent="false"/>
              <y:BorderStyle color="#666699" type="dotted" width="1.0"/>
              <y:NodeLabel alignment="right" autoSizePolicy="node_width" backgroundColor="#99CCFF" borderDistance="0.0" fontFamily="Dialog" fontSize="15" fontStyle="plain" hasLineColor="false" height="21.45361328125" horizontalTextPosition="center" iconTextGap="4" modelName="internal" modelPosition="b" textColor="#000000" verticalTextPosition="bottom" visible="true" width="329.0" x="0.0" xml:space="preserve" y="112.79638671875">Hardware (Host)</y:NodeLabel>
              <y:Shape type="roundrectangle"/>
              <y:State closed="false" closedHeight="50.0" closedWidth="50.0" innerGraphDisplayEnabled="false"/>
              <y:Insets bottom="15" bottomF="15.0" left="15" leftF="15.0" right="15" rightF="15.0" top="15" topF="15.0"/>
              <y:BorderInsets bottom="0" bottomF="0.0" left="15" leftF="15.0" right="27" rightF="26.75" top="16" topF="15.54638671875"/>
            </y:GroupNode>
            <y:GroupNode>
              <y:Geometry height="50.0" width="50.0" x="374.0" y="623.0"/>
              <y:Fill color="#CAECFF84" transparent="false"/>
              <y:BorderStyle color="#666699" type="dotted" width="1.0"/>
              <y:NodeLabel alignment="right" autoSizePolicy="node_width" backgroundColor="#99CCFF" borderDistance="0.0" fontFamily="Dialog" fontSize="15" fontStyle="plain" hasLineColor="false" height="21.45361328125" horizontalTextPosition="center" iconTextGap="4" modelName="internal" modelPosition="t" textColor="#000000" verticalTextPosition="bottom" visible="true" width="50.0" x="0.0" xml:space="preserve" y="0.0">2</y:NodeLabel>
              <y:Shape type="roundrectangle"/>
              <y:State closed="true" closedHeight="50.0" closedWidth="50.0" innerGraphDisplayEnabled="false"/>
              <y:Insets bottom="15" bottomF="15.0" left="15" leftF="15.0" right="15" rightF="15.0" top="15" topF="15.0"/>
              <y:BorderInsets bottom="0" bottomF="0.0" left="0" leftF="0.0" right="0" rightF="0.0" top="0" topF="0.0"/>
            </y:GroupNode>
          </y:Realizers>
        </y:ProxyAutoBoundsNode>
      </data>
      <graph edgedefault="directed" id="n0:">
        <node id="n0::n0">
          <data key="d6">
            <y:ShapeNode>
              <y:Geometry height="67.25" width="257.25" x="-548.625" y="1307.5927734375"/>
              <y:Fill color="#FFCC00" transparent="false"/>
              <y:BorderStyle color="#000000" raised="false" type="line" width="1.0"/>
              <y:NodeLabel alignment="center" autoSizePolicy="content" fontFamily="Dialog" fontSize="12" fontStyle="plain" hasBackgroundColor="false" hasLineColor="false" height="31.92578125" horizontalTextPosition="center" iconTextGap="4" modelName="custom" textColor="#000000" verticalTextPosition="bottom" visible="true" width="34.4921875" x="111.37890625" xml:space="preserve" y="17.662109375">CPU
(X86)<y:LabelModel><y:SmartNodeLabelModel distance="4.0"/></y:LabelModel><y:ModelParameter><y:SmartNodeLabelModelParameter labelRatioX="0.0" labelRatioY="0.0" nodeRatioX="0.0" nodeRatioY="0.0" offsetX="0.0" offsetY="0.0" upX="0.0" upY="-1.0"/></y:ModelParameter></y:NodeLabel>
              <y:Shape type="roundrectangle"/>
            </y:ShapeNode>
          </data>
        </node>
      </graph>
    </node>
    <node id="n1">
      <data key="d6">
        <y:ShapeNode>
          <y:Geometry height="61.0" width="329.0" x="-578.625" y="1186.04638671875"/>
          <y:Fill color="#FFCC00" transparent="false"/>
          <y:BorderStyle color="#000000" raised="false" type="line" width="1.0"/>
          <y:NodeLabel alignment="center" autoSizePolicy="content" fontFamily="Dialog" fontSize="12" fontStyle="plain" hasBackgroundColor="false" hasLineColor="false" height="17.962890625" horizontalTextPosition="center" iconTextGap="4" modelName="custom" textColor="#000000" verticalTextPosition="bottom" visible="true" width="115.931640625" x="106.5341796875" xml:space="preserve" y="21.5185546875">Virtualisation Layer<y:LabelModel><y:SmartNodeLabelModel distance="4.0"/></y:LabelModel><y:ModelParameter><y:SmartNodeLabelModelParameter labelRatioX="0.0" labelRatioY="0.0" nodeRatioX="0.0" nodeRatioY="0.0" offsetX="0.0" offsetY="0.0" upX="0.0" upY="-1.0"/></y:ModelParameter></y:NodeLabel>
          <y:Shape type="roundrectangle"/>
        </y:ShapeNode>
      </data>
    </node>
    <node id="n2" yfiles.foldertype="group">
      <data key="d4" xml:space="preserve"/>
      <data key="d6">
        <y:ProxyAutoBoundsNode>
          <y:Realizers active="0">
            <y:GroupNode>
              <y:Geometry height="587.698486328125" width="329.0" x="-578.625" y="574.801513671875"/>
              <y:Fill color="#CAECFF84" transparent="false"/>
              <y:BorderStyle color="#666699" type="dotted" width="1.0"/>
              <y:NodeLabel alignment="center" autoSizePolicy="node_width" backgroundColor="#99CCFF" borderDistance="0.0" fontFamily="Dialog" fontSize="15" fontStyle="plain" hasLineColor="false" height="21.45361328125" horizontalTextPosition="center" iconTextGap="4" modelName="internal" modelPosition="b" textColor="#000000" verticalTextPosition="bottom" visible="true" width="329.0" x="0.0" xml:space="preserve" y="566.244873046875">Ring 0</y:NodeLabel>
              <y:Shape type="roundrectangle"/>
              <y:State closed="false" closedHeight="50.0" closedWidth="50.0" innerGraphDisplayEnabled="false"/>
              <y:Insets bottom="15" bottomF="15.0" left="15" leftF="15.0" right="15" rightF="15.0" top="15" topF="15.0"/>
              <y:BorderInsets bottom="0" bottomF="0.0" left="0" leftF="0.0" right="0" rightF="0.0" top="0" topF="0.0"/>
            </y:GroupNode>
            <y:GroupNode>
              <y:Geometry height="50.0" width="50.0" x="-115.0" y="1055.0"/>
              <y:Fill color="#CAECFF84" transparent="false"/>
              <y:BorderStyle color="#666699" type="dotted" width="1.0"/>
              <y:NodeLabel alignment="right" autoSizePolicy="node_width" backgroundColor="#99CCFF" borderDistance="0.0" fontFamily="Dialog" fontSize="15" fontStyle="plain" hasLineColor="false" height="21.45361328125" horizontalTextPosition="center" iconTextGap="4" modelName="internal" modelPosition="t" textColor="#000000" verticalTextPosition="bottom" visible="true" width="50.0" x="0.0" xml:space="preserve" y="0.0">2</y:NodeLabel>
              <y:Shape type="roundrectangle"/>
              <y:State closed="true" closedHeight="50.0" closedWidth="50.0" innerGraphDisplayEnabled="false"/>
              <y:Insets bottom="15" bottomF="15.0" left="15" leftF="15.0" right="15" rightF="15.0" top="15" topF="15.0"/>
              <y:BorderInsets bottom="0" bottomF="0.0" left="0" leftF="0.0" right="0" rightF="0.0" top="0" topF="0.0"/>
            </y:GroupNode>
          </y:Realizers>
        </y:ProxyAutoBoundsNode>
      </data>
      <graph edgedefault="directed" id="n2:">
        <node id="n2::n0" yfiles.foldertype="group">
          <data key="d4" xml:space="preserve"/>
          <data key="d6">
            <y:ProxyAutoBoundsNode>
              <y:Realizers active="0">
                <y:GroupNode>
                  <y:Geometry height="467.152099609375" width="299.0" x="-563.625" y="589.801513671875"/>
                  <y:Fill color="#CAECFF84" transparent="false"/>
                  <y:BorderStyle color="#666699" type="dotted" width="1.0"/>
                  <y:NodeLabel alignment="center" autoSizePolicy="node_width" backgroundColor="#99CCFF" borderDistance="0.0" fontFamily="Dialog" fontSize="15" fontStyle="plain" hasLineColor="false" height="21.45361328125" horizontalTextPosition="center" iconTextGap="4" modelName="internal" modelPosition="b" textColor="#000000" verticalTextPosition="bottom" visible="true" width="299.0" x="0.0" xml:space="preserve" y="445.698486328125">Ring 1</y:NodeLabel>
                  <y:Shape type="roundrectangle"/>
                  <y:State closed="false" closedHeight="50.0" closedWidth="50.0" innerGraphDisplayEnabled="false"/>
                  <y:Insets bottom="15" bottomF="15.0" left="15" leftF="15.0" right="15" rightF="15.0" top="15" topF="15.0"/>
                  <y:BorderInsets bottom="0" bottomF="0.0" left="0" leftF="0.0" right="0" rightF="0.0" top="25" topF="24.698486328125"/>
                </y:GroupNode>
                <y:GroupNode>
                  <y:Geometry height="50.0" width="50.0" x="-115.0" y="1055.0"/>
                  <y:Fill color="#CAECFF84" transparent="false"/>
                  <y:BorderStyle color="#666699" type="dotted" width="1.0"/>
                  <y:NodeLabel alignment="right" autoSizePolicy="node_width" backgroundColor="#99CCFF" borderDistance="0.0" fontFamily="Dialog" fontSize="15" fontStyle="plain" hasLineColor="false" height="21.45361328125" horizontalTextPosition="center" iconTextGap="4" modelName="internal" modelPosition="t" textColor="#000000" verticalTextPosition="bottom" visible="true" width="50.0" x="0.0" xml:space="preserve" y="0.0">2</y:NodeLabel>
                  <y:Shape type="roundrectangle"/>
                  <y:State closed="true" closedHeight="50.0" closedWidth="50.0" innerGraphDisplayEnabled="false"/>
                  <y:Insets bottom="15" bottomF="15.0" left="15" leftF="15.0" right="15" rightF="15.0" top="15" topF="15.0"/>
                  <y:BorderInsets bottom="0" bottomF="0.0" left="0" leftF="0.0" right="0" rightF="0.0" top="0" topF="0.0"/>
                </y:GroupNode>
              </y:Realizers>
            </y:ProxyAutoBoundsNode>
          </data>
          <graph edgedefault="directed" id="n2::n0:">
            <node id="n2::n0::n0" yfiles.foldertype="group">
              <data key="d4" xml:space="preserve"/>
              <data key="d6">
                <y:ProxyAutoBoundsNode>
                  <y:Realizers active="0">
                    <y:GroupNode>
                      <y:Geometry height="321.0" width="269.0" x="-548.625" y="629.5"/>
                      <y:Fill color="#CAECFF84" transparent="false"/>
                      <y:BorderStyle color="#666699" type="dotted" width="1.0"/>
                      <y:NodeLabel alignment="center" autoSizePolicy="node_width" backgroundColor="#99CCFF" borderDistance="0.0" fontFamily="Dialog" fontSize="15" fontStyle="plain" hasLineColor="false" height="21.45361328125" horizontalTextPosition="center" iconTextGap="4" modelName="internal" modelPosition="b" textColor="#000000" verticalTextPosition="bottom" visible="true" width="269.0" x="0.0" xml:space="preserve" y="299.54638671875">Ring 2</y:NodeLabel>
                      <y:Shape type="roundrectangle"/>
                      <y:State closed="false" closedHeight="50.0" closedWidth="50.0" innerGraphDisplayEnabled="false"/>
                      <y:Insets bottom="15" bottomF="15.0" left="15" leftF="15.0" right="15" rightF="15.0" top="15" topF="15.0"/>
                      <y:BorderInsets bottom="0" bottomF="0.0" left="0" leftF="0.0" right="0" rightF="0.0" top="0" topF="0.0"/>
                    </y:GroupNode>
                    <y:GroupNode>
                      <y:Geometry height="50.0" width="50.0" x="-115.0" y="1055.0"/>
                      <y:Fill color="#CAECFF84" transparent="false"/>
                      <y:BorderStyle color="#666699" type="dotted" width="1.0"/>
                      <y:NodeLabel alignment="right" autoSizePolicy="node_width" backgroundColor="#99CCFF" borderDistance="0.0" fontFamily="Dialog" fontSize="15" fontStyle="plain" hasLineColor="false" height="21.45361328125" horizontalTextPosition="center" iconTextGap="4" modelName="internal" modelPosition="t" textColor="#000000" verticalTextPosition="bottom" visible="true" width="50.0" x="0.0" xml:space="preserve" y="0.0">2</y:NodeLabel>
                      <y:Shape type="roundrectangle"/>
                      <y:State closed="true" closedHeight="50.0" closedWidth="50.0" innerGraphDisplayEnabled="false"/>
                      <y:Insets bottom="15" bottomF="15.0" left="15" leftF="15.0" right="15" rightF="15.0" top="15" topF="15.0"/>
                      <y:BorderInsets bottom="0" bottomF="0.0" left="0" leftF="0.0" right="0" rightF="0.0" top="0" topF="0.0"/>
                    </y:GroupNode>
                  </y:Realizers>
                </y:ProxyAutoBoundsNode>
              </data>
              <graph edgedefault="directed" id="n2::n0::n0:">
                <node id="n2::n0::n0::n0" yfiles.foldertype="group">
                  <data key="d4" xml:space="preserve"/>
                  <data key="d6">
                    <y:ProxyAutoBoundsNode>
                      <y:Realizers active="0">
                        <y:GroupNode>
                          <y:Geometry height="190.54638671875" width="239.0" x="-533.625" y="644.5"/>
                          <y:Fill color="#CAECFF84" transparent="false"/>
                          <y:BorderStyle color="#666699" type="dotted" width="1.0"/>
                          <y:NodeLabel alignment="center" autoSizePolicy="node_width" backgroundColor="#99CCFF" borderDistance="0.0" fontFamily="Dialog" fontSize="15" fontStyle="plain" hasLineColor="false" height="21.45361328125" horizontalTextPosition="center" iconTextGap="4" modelName="internal" modelPosition="b" textColor="#000000" verticalTextPosition="bottom" visible="true" width="239.0" x="0.0" xml:space="preserve" y="169.0927734375">Ring 3</y:NodeLabel>
                          <y:Shape type="roundrectangle"/>
                          <y:State closed="false" closedHeight="50.0" closedWidth="50.0" innerGraphDisplayEnabled="false"/>
                          <y:Insets bottom="15" bottomF="15.0" left="15" leftF="15.0" right="15" rightF="15.0" top="15" topF="15.0"/>
                          <y:BorderInsets bottom="5" bottomF="5.0" left="0" leftF="0.0" right="0" rightF="0.0" top="0" topF="0.0"/>
                        </y:GroupNode>
                        <y:GroupNode>
                          <y:Geometry height="50.0" width="50.0" x="-115.0" y="1055.0"/>
                          <y:Fill color="#CAECFF84" transparent="false"/>
                          <y:BorderStyle color="#666699" type="dotted" width="1.0"/>
                          <y:NodeLabel alignment="right" autoSizePolicy="node_width" backgroundColor="#99CCFF" borderDistance="0.0" fontFamily="Dialog" fontSize="15" fontStyle="plain" hasLineColor="false" height="21.45361328125" horizontalTextPosition="center" iconTextGap="4" modelName="internal" modelPosition="t" textColor="#000000" verticalTextPosition="bottom" visible="true" width="50.0" x="0.0" xml:space="preserve" y="0.0">2</y:NodeLabel>
                          <y:Shape type="roundrectangle"/>
                          <y:State closed="true" closedHeight="50.0" closedWidth="50.0" innerGraphDisplayEnabled="false"/>
                          <y:Insets bottom="15" bottomF="15.0" left="15" leftF="15.0" right="15" rightF="15.0" top="15" topF="15.0"/>
                          <y:BorderInsets bottom="0" bottomF="0.0" left="0" leftF="0.0" right="0" rightF="0.0" top="0" topF="0.0"/>
                        </y:GroupNode>
                      </y:Realizers>
                    </y:ProxyAutoBoundsNode>
                  </data>
                  <graph edgedefault="directed" id="n2::n0::n0::n0:">
                    <node id="n2::n0::n0::n0::n0">
                      <data key="d6">
                        <y:ShapeNode>
                          <y:Geometry height="61.0" width="209.0" x="-518.625" y="732.5927734375"/>
                          <y:Fill color="#FFCC00" transparent="false"/>
                          <y:BorderStyle color="#000000" raised="false" type="line" width="1.0"/>
                          <y:NodeLabel alignment="center" autoSizePolicy="content" fontFamily="Dialog" fontSize="12" fontStyle="plain" hasBackgroundColor="false" hasLineColor="false" height="17.962890625" horizontalTextPosition="center" iconTextGap="4" modelName="custom" textColor="#000000" verticalTextPosition="bottom" visible="true" width="65.359375" x="71.8203125" xml:space="preserve" y="21.5185546875">Bins / Libs<y:LabelModel><y:SmartNodeLabelModel distance="4.0"/></y:LabelModel><y:ModelParameter><y:SmartNodeLabelModelParameter labelRatioX="0.0" labelRatioY="0.0" nodeRatioX="0.0" nodeRatioY="0.0" offsetX="0.0" offsetY="0.0" upX="0.0" upY="-1.0"/></y:ModelParameter></y:NodeLabel>
                          <y:Shape type="roundrectangle"/>
                        </y:ShapeNode>
                      </data>
                    </node>
                    <node id="n2::n0::n0::n0::n1">
                      <data key="d6">
                        <y:ShapeNode>
                          <y:Geometry height="61.0" width="209.0" x="-518.625" y="659.5"/>
                          <y:Fill color="#FFCC00" transparent="false"/>
                          <y:BorderStyle color="#000000" raised="false" type="line" width="1.0"/>
                          <y:NodeLabel alignment="center" autoSizePolicy="content" fontFamily="Dialog" fontSize="12" fontStyle="plain" hasBackgroundColor="false" hasLineColor="false" height="17.962890625" horizontalTextPosition="center" iconTextGap="4" modelName="custom" textColor="#000000" verticalTextPosition="bottom" visible="true" width="70.73828125" x="69.130859375" xml:space="preserve" y="21.5185546875">Applikation<y:LabelModel><y:SmartNodeLabelModel distance="4.0"/></y:LabelModel><y:ModelParameter><y:SmartNodeLabelModelParameter labelRatioX="0.0" labelRatioY="0.0" nodeRatioX="0.0" nodeRatioY="0.0" offsetX="0.0" offsetY="0.0" upX="0.0" upY="-1.0"/></y:ModelParameter></y:NodeLabel>
                          <y:Shape type="roundrectangle"/>
                        </y:ShapeNode>
                      </data>
                    </node>
                  </graph>
                </node>
                <node id="n2::n0::n0::n1">
                  <data key="d6">
                    <y:ShapeNode>
                      <y:Geometry height="61.0" width="209.0" x="-524.5" y="853.04638671875"/>
                      <y:Fill color="#FFCC00" transparent="false"/>
                      <y:BorderStyle color="#000000" raised="false" type="line" width="1.0"/>
                      <y:NodeLabel alignment="center" autoSizePolicy="content" fontFamily="Dialog" fontSize="12" fontStyle="plain" hasBackgroundColor="false" hasLineColor="false" hasText="false" height="4.0" horizontalTextPosition="center" iconTextGap="4" modelName="custom" textColor="#000000" verticalTextPosition="bottom" visible="true" width="4.0" x="102.5" y="28.5">
                        <y:LabelModel>
                          <y:SmartNodeLabelModel distance="4.0"/>
                        </y:LabelModel>
                        <y:ModelParameter>
                          <y:SmartNodeLabelModelParameter labelRatioX="0.0" labelRatioY="0.0" nodeRatioX="0.0" nodeRatioY="0.0" offsetX="0.0" offsetY="0.0" upX="0.0" upY="-1.0"/>
                        </y:ModelParameter>
                      </y:NodeLabel>
                      <y:Shape type="roundrectangle"/>
                    </y:ShapeNode>
                  </data>
                </node>
              </graph>
            </node>
            <node id="n2::n0::n1">
              <data key="d6">
                <y:ShapeNode>
                  <y:Geometry height="61.0" width="209.0" x="-524.5" y="959.5"/>
                  <y:Fill color="#FFCC00" transparent="false"/>
                  <y:BorderStyle color="#000000" raised="false" type="line" width="1.0"/>
                  <y:NodeLabel alignment="center" autoSizePolicy="content" fontFamily="Dialog" fontSize="12" fontStyle="plain" hasBackgroundColor="false" hasLineColor="false" hasText="false" height="4.0" horizontalTextPosition="center" iconTextGap="4" modelName="custom" textColor="#000000" verticalTextPosition="bottom" visible="true" width="4.0" x="102.5" y="28.5">
                    <y:LabelModel>
                      <y:SmartNodeLabelModel distance="4.0"/>
                    </y:LabelModel>
                    <y:ModelParameter>
                      <y:SmartNodeLabelModelParameter labelRatioX="0.0" labelRatioY="0.0" nodeRatioX="0.0" nodeRatioY="0.0" offsetX="0.0" offsetY="0.0" upX="0.0" upY="-1.0"/>
                    </y:ModelParameter>
                  </y:NodeLabel>
                  <y:Shape type="roundrectangle"/>
                </y:ShapeNode>
              </data>
            </node>
          </graph>
        </node>
        <node id="n2::n1">
          <data key="d6">
            <y:ShapeNode>
              <y:Geometry height="61.0" width="209.0" x="-542.75" y="1065.04638671875"/>
              <y:Fill color="#FFCC00" transparent="false"/>
              <y:BorderStyle color="#000000" raised="false" type="line" width="1.0"/>
              <y:NodeLabel alignment="center" autoSizePolicy="content" fontFamily="Dialog" fontSize="12" fontStyle="plain" hasBackgroundColor="false" hasLineColor="false" height="17.962890625" horizontalTextPosition="center" iconTextGap="4" modelName="custom" textColor="#000000" verticalTextPosition="bottom" visible="true" width="164.18359375" x="22.408203125" xml:space="preserve" y="21.5185546875">Paravirtualisized OS (Guest)<y:LabelModel><y:SmartNodeLabelModel distance="4.0"/></y:LabelModel><y:ModelParameter><y:SmartNodeLabelModelParameter labelRatioX="0.0" labelRatioY="0.0" nodeRatioX="0.0" nodeRatioY="0.0" offsetX="0.0" offsetY="0.0" upX="0.0" upY="-1.0"/></y:ModelParameter></y:NodeLabel>
              <y:Shape type="roundrectangle"/>
            </y:ShapeNode>
          </data>
        </node>
      </graph>
    </node>
    <node id="n3">
      <data key="d5"/>
      <data key="d6">
        <y:GenericNode configuration="com.yworks.flowchart.offPageReference">
          <y:Geometry height="152.5" width="81.25" x="-220.0" y="1146.04638671875"/>
          <y:Fill color="#E8EEF7" color2="#B7C9E3" transparent="false"/>
          <y:BorderStyle color="#000000" type="line" width="1.0"/>
          <y:NodeLabel alignment="center" autoSizePolicy="content" fontFamily="Dialog" fontSize="12" fontStyle="plain" hasBackgroundColor="false" hasLineColor="false" height="17.962890625" horizontalTextPosition="center" iconTextGap="4" modelName="custom" textColor="#000000" verticalTextPosition="bottom" visible="true" width="64.064453125" x="8.5927734375" xml:space="preserve" y="67.2685546875">Hypercalls<y:LabelModel><y:SmartNodeLabelModel distance="4.0"/></y:LabelModel><y:ModelParameter><y:SmartNodeLabelModelParameter labelRatioX="0.0" labelRatioY="0.0" nodeRatioX="0.0" nodeRatioY="0.0" offsetX="0.0" offsetY="0.0" upX="0.0" upY="-1.0"/></y:ModelParameter></y:NodeLabel>
        </y:GenericNode>
      </data>
    </node>
  </graph>
  <data key="d7">
    <y:Resources/>
  </data>
</graphml>
